<svg version="1.1" id="_x31_0" xmlns="http://www.w3.org/2000/svg" xmlns:xlink="http://www.w3.org/1999/xlink" x="0px" y="0px" viewBox="0 0 512 512" style="width: 256px; height: 256px; opacity: 1;" xml:space="preserve">
<style type="text/css">
	.st0{fill:#374149;}
</style>
<g>
	<path class="st0" d="M431.461,0H80.539C36.129,0,0,36.133,0,80.543v350.918C0,475.871,36.129,512,80.539,512h350.922
		C475.867,512,512,475.871,512,431.461V80.543C512,36.133,475.867,0,431.461,0z M57.527,80.543
		c0-12.657,10.356-23.012,23.012-23.012h350.922c12.656,0,23.008,10.355,23.008,23.012v350.918
		c0,12.656-10.352,23.012-23.008,23.012H80.539c-12.656,0-23.012-10.356-23.012-23.012V80.543z" style="fill: rgb(48, 48, 48);"></path>
</g>
</svg>
