<svg version="1.1" id="_x31_0" xmlns="http://www.w3.org/2000/svg" xmlns:xlink="http://www.w3.org/1999/xlink" x="0px" y="0px" viewBox="0 0 512 512" style="width: 256px; height: 256px; opacity: 1;" xml:space="preserve">
<style type="text/css">
	.st0{fill:#374149;}
</style>
<g>
	<circle class="st0" cx="253.617" cy="250.248" r="45.279" style="fill: rgb(48, 48, 48);"></circle>
	<circle class="st0" cx="373.641" cy="135.976" r="45.281" style="fill: rgb(48, 48, 48);"></circle>
	<path class="st0" d="M138.359,416.539c25.008,0,45.278-20.274,45.278-45.278c0-25.008-20.27-45.281-45.278-45.281
		s-45.281,20.273-45.281,45.281C93.078,396.266,113.351,416.539,138.359,416.539z" style="fill: rgb(48, 48, 48);"></path>
	<path class="st0" d="M431.461,0H80.539C36.129,0,0,36.129,0,80.539v350.922C0,475.871,36.129,512,80.539,512h350.922
		c44.41,0,80.539-36.129,80.539-80.539V80.539C512,36.129,475.871,0,431.461,0z M57.527,80.539
		c0-12.656,10.356-23.012,23.012-23.012h350.922c12.656,0,23.012,10.356,23.012,23.012v350.922
		c0,12.656-10.356,23.012-23.012,23.012H80.539c-12.656,0-23.012-10.356-23.012-23.012V80.539z" style="fill: rgb(48, 48, 48);"></path>
</g>
</svg>
